"","site","state","latitude","longitude","elevation","start.year","most.recent","num..years","avg..hours","change"
"1","Yellowstone Natl. Park","WY",44.9764,-110.6996,1901,2004,2018,15,14,1.008
"2","Beartooth Butte ","WY",44.93,-109.6,2792,1984,2007,21,6.2,1.006
"3","Vashon Island ","WA",47.422,-122.4605,98,1997,2015,19,10.9,1.009
"4","West. Wahkiakum Co","WA",46.3568,-123.5813,29,1980,2016,27,14.5,1.016
"5","Chumstick Mtn ","WA",47.6507,-120.4509,1750,1984,2018,27,15.5,0.972
"6","Bryce Canyon ","UT",37.6055,-112.1576,2475,2001,2016,13,7.7,1.016
"7","Marys Peak ","OR",44.51,-123.55,1152,1991,2003,13,7.6,1.156
"8","Browder Ridge ","OR",44.3158,-122.0855,1400,2001,2018,17,13.3,1
"9","Eugene","OR",44.0335,-123.0886,131,1991,2018,28,13.4,1.002
"10","Metolius","OR",44.4733,-121.64,892,1987,2018,29,13.7,1.023
"11","Santa Fe ","NM",35.7184,-105.8488,2741,1992,2010,18,5.2,0.95
"12","Organ Mountains ","NM",32.3666,-106.65,1428,1992,2010,18,17.8,1.024
"13","Los Alamos ","NM",35.8797,-106.3216,2182,1993,2010,18,6.2,0.954
"14","Morton Elrod Memorial","MT",46.53,-114.1,998,1985,2006,19,9.8,0.98
"15","Five Valleys ","MT",46.9145,-114.0312,1018,2000,2018,19,17.6,0.931
"16","Trapper Creek ","ID",42.1678,-113.98,1472,2004,2013,10,22.2,0.99
"17","Seven Devils ","ID",45.3667,-116.4333,1409,2005,2017,12,5.3,0.951
"18","Yellow Pine ","ID",44.9265,-115.4847,1487,1999,2018,20,5.2,1.091
"19","Camas Natl. Wildlife Refuge ","ID",43.9653,-112.2643,1463,2005,2018,14,6.5,0.882
"20","Boise Front ","ID",43.7127,-116.144,1456,1991,2018,28,8.2,1.048
"21","Magic Mountain ","ID",42.1889,-114.2854,2046,2002,2011,10,13.2,1.033
"22","Cal Wood Outdoor L. Center","CO",40.15,-105.3902,2381,1985,2018,33,17,1.026
"23","Roosevelt Natl. Forest","CO",40.3653,-105.3253,2041,1997,2018,21,5.2,0.969
"24","High Line Canal","CO",39.7243,-104.8472,1659,1977,2010,30,8.2,0.974
"25","Chatfield Nature Preserve","CO",39.88,-105.17,1725,1992,2002,10,3.6,0.882
"26","Gilpin Co ","CO",39.8309,-105.4105,2510,1977,2018,40,34,0.986
"27","Fort Collins ","CO",40.57,-105.08,1525,1984,1999,16,19.6,0.974
"28","N. Fork Kern River V.","CA",35.7735,-118.4706,993,2001,2016,16,26.9,0.939
"29","Giant Sequoia Natl. Mon. S.","CA",36,-118.4833,1318,2003,2016,14,23.8,1.033
"30","Big Chico Cr. Eco. Reserve","CA",39.8445,-121.7021,473,2007,2018,12,13.9,1.006
"31","San Bruno Mountain","CA",37.6875,-122.4363,382,1997,2015,15,8.9,0.982
"32","Pinnacles National Park","CA",36.4647,-121.1978,709,2000,2018,19,31.1,0.968
"33","Mount Baden Powell","CA",34.37,-117.77,2301,1993,2007,15,19.7,0.979
"34","ONeill Regional Park","CA",33.72,-117.58,1073,1998,2009,11,6.9,0.862
"35","Sonoma Co ","CA",38.3333,-122.6833,40,1987,2008,20,5.7,0.991
"36","Mount Diablo ","CA",37.9511,-121.8871,381,1980,2018,39,28.7,0.984
"37","San Francisco ","CA",37.7643,-122.4385,107,1999,2018,15,28,1.077
"38","Mount Lassen ","CA",40.4609,-121.404,1826,2007,2018,12,45.8,0.985
"39","White Mountains ","CA",37.582,-118.2478,3962,2005,2018,11,16.2,1.036
"40","Yuba Pass ","CA",39.6619,-120.5519,2415,2001,2018,18,29.4,0.981
"41","Point Reyes ","CA",38.0833,-122.8667,357,2003,2018,15,22.1,0.998
"42","Willow Slough ","CA",38.5827,-121.7164,10,1977,2018,42,5,751339
"43","Palos Verdes ","CA",33.7333,-118.3667,0,1981,2018,36,25.6,0.986
"44","Santa Ynez Canyon","CA",34.0896,-118.6044,231,1982,2015,27,7.1,0.985
"45","San Juan Capistrano","CA",33.48,-117.65,173,1992,2007,16,7.4,1.019
"46","San Joaquin Co","CA",38.1544,-121.3018,13,1978,2018,37,6.5,0.978
"47","Lava Beds Nat. Mon. ","CA",41.7668,-121.5253,1355,2009,2018,10,36.4,1.106
"48","El Dorado Nature Center ","CA",33.8095,-118.0869,7,2005,2018,13,4.8,0.916
"49","Big Bear ","CA",34.2432,-116.8249,2141,1997,2018,19,43.8,1.022
"50","Marin Co ","CA",37.9663,-122.5655,25,1987,2017,29,8.4,0.93
"51","Big Creek ","CA",36.0732,-121.5132,1431,1989,2018,28,13.8,0.993
"52","Hastings Reservation ","CA",36.336,-121.4993,473,1998,2018,20,15.1,0.999
"53","Cosumnes River ","CA",38.3503,-121.4358,7,1994,2017,23,10.7,1.031
"54","Cottonwood Spring ","CA",33.7441,-115.8173,939,2006,2018,13,26.9,0.795
"55","Borrego Springs ","CA",33.25,-116.37,174,1997,2007,11,8.4,0.968
"56","Joshua Tree ","CA",34.0167,-116.1667,1286,1995,2018,24,20.5,0.842
"57","Benicia","CA",38.0691,-122.1847,4,1998,2018,18,11.1,0.966
"58","Berkeley","CA",37.872,-122.2577,98,1977,2018,42,29.6,0.993
"59","Dardenelles","CA",38.3411,-119.8333,1761,1982,2010,27,14.3,1.001
"60","Boyce Thompson Arboretum","AZ",33.295,-111.0946,879,2007,2018,11,12.9,1.074
"61","Ramsey Canyon ","AZ",31.424,-110.2238,1440,1979,2018,40,51.7,0.979
"62","Sabino Canyon ","AZ",32.3656,-110.7774,1094,1991,2018,22,21.7,0.972
"63","Atascosa Highlands ","AZ",31.48,-111.16,1297,1980,2001,21,43,1.026
"64","Monterey","CA",36.5418,-121.8185,158,2008,2018,11,27.9,0.926
"65","Portal","AZ",31.85,-109.1667,2386,1999,2018,15,26.8,1.008
"66","Pasadena","CA",34.173,-117.9912,343,1995,2017,21,10.4,0.967
"67","Pomona","CA",34.12,-117.72,422,1992,2007,14,13.3,0.959
"68","Ochoco","OR",44.3667,-120.2667,1406,1991,2018,26,12.7,0.976
"69","Patagonia","AZ",31.5072,-110.6908,1477,1986,2018,33,59.6,0.995
"70","Minidoka Natl Wild. Refuge ","ID",42.6479,-113.3544,1288,2001,2018,18,6.6,0.915
"71","Rocky Mt. Natl. Park ","CO",40.35,-105.62,2469,1978,1999,18,8.2,0.994
"72","So. San Francisco Bay ","CA",37.48,-122.052,1989,2007,19,5.5,0.984,NA
